{
  "$schema":"http://schema.management.azure.com/schemas/2015-01-01/deploymentTemplate.json#",
  "contentVersion":"1.0.0.0",
  "parameters":{
     "factoryName":{
        "type":"string",
        "metadata":"Data Factory name"
     },
     "AzureBlobStorage1":{
        "type":"string"
     },
     "CosmosDb1":{
        "type":"string"
     }
  },
  "variables":{
     "factoryId":"[concat('Microsoft.DataFactory/factories/', parameters('factoryName'))]"
  },
  "resources":[
     {
        "name":"[concat(parameters('factoryName'), '/PipelineTemplate')]",
        "type":"Microsoft.DataFactory/factories/pipelines",
        "apiVersion":"2018-06-01",
        "properties":{
           "activities":[
              {
                 "name":"CopyData",
                 "type":"Copy",
                 "dependsOn":[
                    
                 ],
                 "policy":{
                    "timeout":"7.00:00:00",
                    "retry":0,
                    "retryIntervalInSeconds":30,
                    "secureOutput":false,
                    "secureInput":false
                 },
                 "userProperties":[
                    
                 ],
                 "typeProperties":{
                    "source":{
                       "type":"JsonSource",
                       "storeSettings":{
                          "type":"AzureBlobStorageReadSettings",
                          "recursive":true,
                          "enablePartitionDiscovery":false
                       },
                       "formatSettings":{
                          "type":"JsonReadSettings"
                       }
                    },
                    "sink":{
                       "type":"CosmosDbSqlApiSink",
                       "writeBehavior":"insert"
                    },
                    "enableStaging":false
                 },
                 "inputs":[
                    {
                       "referenceName":"Json1",
                       "type":"DatasetReference",
                       "parameters":{
                          
                       }
                    }
                 ],
                 "outputs":[
                    {
                       "referenceName":"CosmosDbSqlApiCollection1",
                       "type":"DatasetReference",
                       "parameters":{
                          
                       }
                    }
                 ]
              }
           ],
           "annotations":[
              
           ]
        },
        "dependsOn":[
           "[concat(variables('factoryId'), '/datasets/Json1')]",
           "[concat(variables('factoryId'), '/datasets/CosmosDbSqlApiCollection1')]"
        ]
     },
     {
        "name":"[concat(parameters('factoryName'), '/Json1')]",
        "type":"Microsoft.DataFactory/factories/datasets",
        "apiVersion":"2018-06-01",
        "properties":{
           "linkedServiceName":{
              "referenceName":"[parameters('AzureBlobStorage1')]",
              "type":"LinkedServiceReference"
           },
           "annotations":[
              
           ],
           "type":"Json",
           "typeProperties":{
              "location":{
                 "type":"AzureBlobStorageLocation",
                 "fileName":"manuel.json",
                 "container":"demo03"
              }
           },
           "schema":{
              "type":"object",
              "properties":{
                 "firstname":{
                    "type":"string"
                 },
                 "age":{
                    "type":"integer"
                 },
                 "id":{
                    "type":"string"
                 },
                 "_rid":{
                    "type":"string"
                 },
                 "_self":{
                    "type":"string"
                 },
                 "_etag":{
                    "type":"string"
                 },
                 "_attachments":{
                    "type":"string"
                 },
                 "_ts":{
                    "type":"integer"
                 }
              }
           }
        },
        "dependsOn":[
           
        ]
     },
     {
        "name":"[concat(parameters('factoryName'), '/CosmosDbSqlApiCollection1')]",
        "type":"Microsoft.DataFactory/factories/datasets",
        "apiVersion":"2018-06-01",
        "properties":{
           "linkedServiceName":{
              "referenceName":"[parameters('CosmosDb1')]",
              "type":"LinkedServiceReference"
           },
           "annotations":[
              
           ],
           "type":"CosmosDbSqlApiCollection",
           "schema":{
              "type":"object",
              "properties":{
                 "firstname":{
                    "type":"string"
                 },
                 "age":{
                    "type":"integer"
                 }
              }
           },
           "typeProperties":{
              "collectionName":"Persons"
           }
        },
        "dependsOn":[
           
        ]
     }
  ]
}